<?xml version="1.0" encoding="utf-8"?>
<!-- Generator: Adobe Illustrator 22.1.0, SVG Export Plug-In . SVG Version: 6.00 Build 0)  -->
<svg version="1.1" id="Livello_1" xmlns="http://www.w3.org/2000/svg" xmlns:xlink="http://www.w3.org/1999/xlink" x="0px" y="0px"
	 viewBox="0 0 508.9 512" style="enable-background:new 0 0 508.9 512;" xml:space="preserve">
<style type="text/css">
	.st0{fill:#1D1D1B;}
</style>
<g>
	<path class="st0" d="M232.3,446.5c-2.5-0.3-4.8,1.5-5.1,4c-0.3,2.5,1.5,4.8,4,5.1c8.1,1,16.2,1.4,24.3,1.4
		c53.2,0,104-20.9,142.2-59.1c43.7-43.7,64.7-104,57.7-165.5c-0.3-2.5-2.5-4.3-5-4c-2.5,0.3-4.3,2.5-4,5
		c6.7,58.7-13.4,116.3-55.1,158C349.2,433.5,291.3,453.5,232.3,446.5z"/>
	<path class="st0" d="M51.4,363.9c-11.5-19.6-8.6-24-8-24.7c0,0,3.5-2.6,22.9,11.7c13.7,10.1,30.5,25,48.3,40.7
		c41.4,36.6,70.1,61.1,86.5,61.1c3.5,0,6.4-1.1,8.8-3.5c13.2-13.2-13.1-45.6-57.1-97.5c-18.1-21.4-36.8-43.4-49.1-61.4
		c-16.8-24.7-14.5-31.5-12.7-33.3c1.8-1.8,8.7-4.1,33.3,14.2c18.1,13.5,40.6,34.2,62.4,54.2c48.5,44.6,82.1,74,101.3,74
		c4.1,0,7.6-1.3,10.4-4.2c15.4-15.4-14-50.5-63.3-106.4c-43.9-49.9-98.6-112-78.6-132c20-20,82.1,34.7,132,78.6
		c45.8,40.4,77.6,67.4,96.1,67.4c4.1,0,7.5-1.3,10.3-4.1c16-16-15.7-52.9-69.8-111.7c-20-21.8-40.7-44.3-54.2-62.4
		c-18.3-24.6-16.1-31.5-14.2-33.3c1.8-1.8,8.7-4.2,33.3,12.7c18,12.3,40.1,31,61.4,49.1c42.8,36.3,72.3,60.5,88.8,60.5
		c3.5,0,6.4-1.1,8.7-3.4c13.5-13.5-13.1-45-57.6-95.3c-15.7-17.8-30.6-34.6-40.7-48.3c-14.3-19.3-11.7-22.9-11.7-22.9
		c0.7-0.7,5.1-3.5,24.7,8c13.8,8.1,30.4,20.4,46.4,32.2c29.1,21.5,47.3,34.6,57.7,34.6c2.6,0,4.6-0.8,6.3-2.4
		c5.4-5.4,2.8-15.5-8.4-31.7c-7.7-11.2-17.8-22.9-24-29c-1.8-1.8-4.7-1.8-6.4,0c-1.8,1.8-1.8,4.7,0,6.4c5.5,5.5,14.7,16.1,21.9,26.4
		c10.5,15,10.5,20.2,10.4,21.2c-1.1,0-5.4-0.5-17.8-8.4c-9.8-6.3-21.7-15.1-34.4-24.4c-43.7-32.3-71.2-51.1-83-39.3
		c-11.1,11.1,11.3,37.7,52,83.7c16.7,18.9,34,38.4,45.5,54.3c16.4,22.7,13.4,27.7,12.6,28.5c-0.8,0.8-5.7,3.8-28.6-12.1
		c-16.2-11.2-35.8-27.9-56.6-45.5C300.7,98.1,265.2,70,250.3,84.9c-16.4,16.4,21,56.9,68.2,108.3c20.5,22.3,41.8,45.4,55.6,64.1
		c18.3,24.7,16.9,32.5,14.5,35c-2.3,2.3-9.5,3.7-32.1-12.3c-17.5-12.4-39-31.3-61.8-51.4c-58.2-51.3-118.4-104.3-144.5-78.2
		c-26.1,26.1,26.9,86.2,78.2,144.4c20.1,22.8,39,44.3,51.4,61.8c16,22.7,14.6,29.9,12.3,32.1c-2.5,2.5-10.3,3.9-35-14.5
		c-18.7-13.9-41.8-35.1-64.1-55.6c-51.4-47.2-91.9-84.6-108.3-68.2c-14.9,14.9,13.2,50.4,61.3,107.1c17.6,20.7,34.2,40.3,45.5,56.5
		c15.9,22.9,12.9,27.9,12.1,28.6c-0.8,0.8-5.8,3.8-28.5-12.6c-15.9-11.5-35.5-28.8-54.3-45.5c-46-40.7-72.6-63.1-83.7-52
		c-11.8,11.8,6.9,39.2,39.3,83c9.3,12.6,18.1,24.5,24.4,34.4c7.8,12.3,8.5,16.6,8.4,17.8c-1.2,0.1-6.4,0-21.2-10.4
		c-10.3-7.2-20.9-16.4-26.4-21.9c-1.8-1.8-4.7-1.8-6.4,0c-1.8,1.8-1.8,4.7,0,6.4c6.2,6.2,17.9,16.3,29,24
		c10.8,7.4,18.9,11.1,24.7,11.1c2.9,0,5.2-0.9,7-2.7c8.4-8.4-5.3-27.7-32.1-64C71.7,394.3,59.5,377.7,51.4,363.9z"/>
	<path class="st0" d="M24.2,323.7C26,262.2,30,192.9,41.9,138.3c9.9-13.3,22.5-26.8,38.7-39.5c-21,36.6-29.9,84.3-26.4,141.4
		c-1.8,23.3,0.4,47,7,70.1c0.6,2,2.4,3.3,4.4,3.3c0.4,0,0.8-0.1,1.2-0.2c2.4-0.7,3.8-3.2,3.2-5.6c-18.9-67.1-0.1-139.3,49.1-188.5
		C170.3,68.1,245,50,314,72.2c2.4,0.8,5-0.6,5.7-2.9s-0.6-5-3-5.7c-72.3-23.2-150.5-4.2-204.2,49.4c-29.5,29.5-48.6,66.9-55.8,106.7
		c-0.5-51.2,10-93.8,31.2-126.4c9.9-7.2,20.9-14.1,33.3-20.6c31.6-16.5,82-36.3,193-42.4c1.3-0.1,2.2-1.1,2.1-2.4
		c-0.1-1.3-1.1-2.2-2.4-2.1c-0.6,0-1.2,0.1-1.8,0.1c0,0-0.1,0-0.1,0C258.5,1,207.5,1,182.8,1c-19.4,0-39.5,5-58.2,14.3
		c-21,10.6-39.5,26.2-54.9,46.4C57.8,77.4,48.3,100.6,41,132.1c-16.8,21.6-26.4,43-32,60.9c-13.9,45-9.5,94,11.9,134.4
		c0.4,0.8,1.2,1.2,2,1.2c0.4,0,0.7-0.1,1.1-0.3c1.1-0.6,1.5-2,0.9-3.1C24.7,324.7,24.4,324.2,24.2,323.7z M119.2,68.5
		c-8.4,4.4-16.2,9-23.4,13.7c4.1-5.2,8.4-10.1,13.1-14.7C151.8,25.7,219,11.3,299.3,26.4C197.7,33.5,149.8,52.5,119.2,68.5z
		 M71.5,63.1c15.2-20,33.4-35.4,54.1-45.8c18.3-9.2,38.1-14.1,57.1-14.1c23,0,68.9,0,118.3,20c-81.9-15.7-150.7-1.1-194.5,41.8
		C99.4,72,93.1,79.7,87.4,88c-17.7,12.7-31.8,26.2-43,39.8C51,101.1,59.8,78.5,71.5,63.1z M22,319.4C3.7,281.2,0.5,236,13.4,194.3
		c4.7-15.2,12.5-33,25.2-51.3c-1.8,9-3.5,18.5-5.1,28.7C27.6,210.4,24,257.4,22,319.4z"/>
	<path class="st0" d="M451.4,137.4c-0.5-0.7-1-1.3-1.5-2c-0.8-1-2.2-1.2-3.2-0.4c-1,0.8-1.2,2.2-0.4,3.2c0.6,0.8,1.2,1.6,1.8,2.4
		c29,57.1,27.3,128,15.7,175.8c-1.3,5.3-2.5,10.6-3.7,15.8c-2.9,12.8-5.8,25.3-9.6,37.7c-37.2,46-81,72-116.5,86.7
		c-56.6,23.4-120,29.1-173.3,16.2c-5.6-1.6-11-3.3-16-5.1c-0.5-0.4-1.1-0.7-1.6-1.1c-1-0.7-2.5-0.5-3.2,0.5c-0.7,1-0.5,2.5,0.5,3.2
		c16.3,11.5,44,22.1,78,30c29,6.7,59.3,10.6,81.9,10.6c1,0,1.9,0,2.9,0c49.6-0.8,92.9-19.3,125-53.6c31.5-33.5,51.7-81.8,58.9-140.1
		c5.1-9.9,9.8-20.4,14.2-31.5C518.9,241.7,500.3,166.8,451.4,137.4z M219.7,481.8c38.2,0,78.2-7.8,115.2-23.1
		c34.6-14.3,77.1-39.4,113.7-82.9C437.1,410,417,442.2,366.9,471c-23.6,13.6-62.8,19.7-110.3,17.2c-20.5-1.1-42.1-3.8-62.4-7.7
		C202.6,481.4,211.1,481.8,219.7,481.8z M425.1,454.3c-31.3,33.4-73.4,51.4-121.8,52.1c-1,0-1.9,0-2.9,0
		c-40.6,0-103.5-12.5-141-30.5c33,9.5,76.6,16.3,117.4,16.3c35.5,0,69-5.2,91.7-18.3c55.3-31.8,74.7-67.6,86-105.5
		c9.4-11.9,18.3-25.1,26.5-39.7C472.9,380.7,453.7,423.8,425.1,454.3z M483.9,307.8c-0.5,5-1.1,9.8-1.8,14.6
		c-8,14.8-16.7,28.1-25.8,40.2c2.7-9.8,5-19.6,7.2-29.6c1.2-5.1,2.4-10.5,3.7-15.7c10.3-42.9,12.9-104.1-7.1-157.8
		C480.9,198,489.5,250.5,483.9,307.8z M499.5,285c-3.5,9-7.3,17.5-11.3,25.7c0.1-0.8,0.2-1.6,0.3-2.5c6.5-65.8-5.6-125.5-33.3-165.7
		C499.4,173.2,515.9,243.2,499.5,285z"/>
</g>
</svg>
