<?xml version="1.0" encoding="utf-8"?>
<!-- Generator: Adobe Illustrator 22.1.0, SVG Export Plug-In . SVG Version: 6.00 Build 0)  -->
<svg version="1.1" id="Livello_1" xmlns="http://www.w3.org/2000/svg" xmlns:xlink="http://www.w3.org/1999/xlink" x="0px" y="0px"
	 viewBox="0 0 512 512" style="enable-background:new 0 0 512 512;" xml:space="preserve">
<style type="text/css">
	.st0{fill:#000100;}
</style>
<g>
	<path class="st0" d="M155.3,148.5c-1,0.8-1.9,1.6-2.8,2.5c-16.1,16.1-16.1,42.1,0,58.2c8,8,18.6,12,29.1,12s21.1-4,29.1-12
		c0.9-0.9,1.7-1.8,2.5-2.8c0.2-0.3,0.5-0.6,0.7-0.9c20.2-25.3,25.9-83.6,25.9-83.6s-58.3,5.7-83.6,25.9
		C155.9,148,155.6,148.3,155.3,148.5z M161.1,155.4c0.2-0.2,0.4-0.4,0.7-0.6c16.5-13.2,50-19.8,67.5-22.5c-3,19.8-10.1,52-22.5,67.5
		c0,0,0,0,0,0.1c-0.2,0.2-0.4,0.5-0.6,0.7c-0.7,0.9-1.4,1.6-1.9,2.2c-6.1,6.1-14.1,9.4-22.7,9.4c-8.6,0-16.6-3.3-22.7-9.4
		c-12.5-12.5-12.5-32.9,0-45.4C159.5,156.8,160.2,156.2,161.1,155.4z"/>
	<path class="st0" d="M511,206.4c0-38.2-18-72.8-62.5-106.5c0,0,0,0,0,0c4.9-24.4,6.8-43.2,6.8-43.2s-14.8,1.5-35.3,5.2c0,0,0,0,0,0
		C398,30.7,370,9,335.7,9c-12.9,0-29.2,1.9-47.4,5.4C255.5,5.7,223.5,1,199.3,1c-35.5,0-65.7,15.1-104.7,64.1
		c-1.6,0.8-3.2,1.6-4.7,2.5C32.9,99.1,4,142.5,1,200.2c0,19.5,3.4,38.7,9.5,57.8c-1.6,9.2-2.4,18-2.4,26.3c0,58,3.8,102.1,48.7,147
		c25.1,25.1,68.2,40.4,111.5,49c24,20,47,30.7,71.8,30.7c22.2,0,46.2-10,71.2-25.2c22.1-4,42.3-11.4,62.1-23.4
		c31.3-5.3,60.6-14.6,81.8-31.1c44-34.2,41.2-87.7,40.1-129.4C505.7,271.6,511,238.3,511,206.4z M444.8,67.2
		c-1.3,9.5-3.6,24.1-7.2,40.3c-8.1,36.2-19,63.7-31.5,79.4l-0.2,0.2c-0.3,0.4-0.6,0.7-0.8,1c-1.4,1.6-2.5,2.9-3.5,3.9
		c-10.9,10.9-25.4,16.9-40.8,16.9s-29.9-6-40.8-16.9C309,181.1,303,166.6,303,151.2c0-15.4,6-29.9,16.9-40.8
		c1.1-1.1,2.3-2.2,3.9-3.5c0.4-0.3,0.7-0.6,1.1-0.9l0.2-0.1c15.7-12.5,43.2-23.4,79.4-31.5C420.7,70.8,435.3,68.5,444.8,67.2z
		 M476.9,256c0,41.3-5.2,75-15.8,102.8c-8.2,11-17.3,20.4-27.1,28c-12.8,9.8-25.9,20.5-38.5,30.7c-19.6,15.8-39.3,31.9-58.8,45.9
		c-22.4,1.8-43.8,2.1-59.9,2.1c-10.9,0-21.4-0.1-30.6-0.3c-6.6-0.1-12.8-0.2-18.4-0.2c-28.6-0.1-57.4-5-83.3-14.1
		c-0.1,0-0.2-0.1-0.2-0.1c-14.7-15.7-31.4-35.7-51.8-62.2c-24.6-31.9-42.6-58.6-55.8-82.8c-0.8-16.5-0.5-33.4-0.1-49.8
		c0.9-35.9,5.2-65.6,11.3-90.2c15.1-26.6,33.7-51.6,54.1-71.2c16.5-15.8,46.1-32.6,83.3-47.4c14.5-1.3,30.2-1.9,47.1-1.9l3.8,0
		l3.8,0c46.5,0,98.7,0,149.1,23.5c-12.6,3.3-25.6,7.3-37.6,12.2c0,0,0,0,0,0c0,0,0,0,0,0C323,65.6,290.5,56.8,256,56.8
		C146,56.8,56.8,146,56.8,256c0,110,89.2,199.2,199.2,199.2S455.2,366,455.2,256c0-34.5-8.8-67-24.3-95.3l0,0
		c5.6-13.5,10-28.3,13.4-42.3c0,0,0,0,0,0c2.7,4.1,5.2,8.4,7.7,12.8C469,177.8,476.9,226.5,476.9,256z M459,144.2
		c3.1,6.3,6,12.8,8.8,19.4c15.7,38.4,24,81.4,24,124.2c0,3.3,0.1,6.7,0.1,10.3c-1.2,3.6-2.4,7.1-3.7,10.5
		c-6.1,16.1-13.6,30.6-22.2,43.3c8.6-25.6,13.2-56.6,13.2-95.9C479.1,227.9,472.5,185.8,459,144.2z M134.7,447.4
		c-23.6-9.5-43.9-22.2-60.5-38c-17.6-16.7-28.3-37.9-33.7-66.7c-1.6-8.5-2.7-17.3-3.4-26.4c14.2,24.6,31.8,49.5,51.6,75.2
		C105.1,412.7,120.3,431.5,134.7,447.4z M32.7,299.1c-1-2-2-4-3-5.9c-6.8-13.8-12.1-27.1-16-40.1c4.8-24.2,14.7-50.6,27.9-76.1
		c-5.4,25.5-8.1,52.4-8.8,79.1C32.5,270.8,32.3,285.2,32.7,299.1z M346,83.3C346,83.3,346,83.3,346,83.3C346,83.3,346,83.3,346,83.3
		C346,83.3,346,83.3,346,83.3z M317.9,435.9c-19.7,6.8-40.5,10.3-62,10.3c-50.8,0-98.6-19.8-134.5-55.7
		C85.6,354.6,65.8,306.8,65.8,256c0-21.4,3.5-42.3,10.3-62L317.9,435.9z M217.6,310.1c0-1.7,0.4-4,3.5-7.2
		c5.6-5.6,13.5-6.8,19.1-6.8c0,0,0,0,0,0c18,0,40.3,11.2,58.4,29.2c13.9,13.9,23.7,30.1,27.5,45.6c3.4,13.9,1.6,25.2-5.1,31.9
		c-3.1,3.1-5.4,3.5-7.1,3.5c-10.5,0-27.2-16.9-44.8-34.7c-2.7-2.7-5.5-5.6-8.4-8.4c-2.9-2.9-5.7-5.6-8.4-8.3
		C234.5,337.2,217.6,320.6,217.6,310.1z M309.7,414.9c1.4,0.3,2.8,0.5,4.1,0.5c4.8,0,9.3-1.9,13.5-6.1c18.7-18.7,8.7-59.2-22.4-90.3
		c-20.5-20.5-45-31.9-64.8-31.9c-10.2,0-19.1,3-25.5,9.4c-5.5,5.5-7,11.3-5.7,17.6L79.6,184.7c9.4-23.4,23.6-44.8,41.9-63.2
		c35.9-35.9,83.7-55.7,134.5-55.7c30,0,58.8,6.9,84.9,19.9c0,0,0,0,0,0c-8,3.9-15.3,8.2-21.3,13.1c-0.5,0.4-1,0.8-1.5,1.2
		c-1.6,1.3-3.1,2.7-4.5,4c-26.1,26.1-26.1,68.3,0,94.4c13,13,30.1,19.6,47.2,19.6s34.2-6.5,47.2-19.6c1.4-1.4,2.7-2.9,4-4.5
		c0.4-0.5,0.8-1,1.2-1.5c4.9-6.1,9.2-13.4,13.1-21.3c13,26,19.9,54.9,19.9,84.9c0,50.8-19.8,98.6-55.7,134.5
		c-18.4,18.4-39.8,32.5-63.2,41.9L309.7,414.9z M335.7,11.2c22,0,42.8,9.3,61.7,27.5c7,6.8,13.7,14.7,20.1,23.7c0,0,0,0,0,0
		c-4.9,0.9-10.1,2-15.5,3.2c-28.1-21.8-68.7-38.8-108.7-49.9C309.5,12.8,324,11.2,335.7,11.2z M306.1,23
		c37.1,11.6,69.1,26.8,91.6,43.6c-0.6,0.1-1.3,0.3-1.9,0.5c-51.5-25.6-104.3-26.3-156-26.3c-2.6,0-5.1,0-7.7,0
		c-11.1,0-22,0.3-32.5,0.8c4.7-1.7,9.4-3.4,14.3-5c24.7-8.4,49.6-15.1,71.8-19.5C292.5,19,299.3,20.9,306.1,23z M143.6,21.6
		c17.6-11.9,34.8-17.3,55.7-17.3c22.8,0,51.9,4.2,81.3,11.5c-27.9,5.8-59.3,15-88.8,26.3c-34.2,2.4-64.9,8.4-90.2,19.6
		C116.5,43.8,130.2,30.7,143.6,21.6z M95.1,69.9c21.3-11.1,48.4-18.3,82.1-21.9c-32,13.3-60.2,28.9-77,45.1
		c-18.7,17.9-36,40.5-50.4,64.7c9-32.3,21.1-54.8,31.9-69.9C86.3,81.5,90.7,75.5,95.1,69.9z M5.5,200.3c1.5-28.3,9.2-52.4,23.4-73.7
		C42.6,106.2,61.8,89,87.6,74.1c-2.9,3.8-5.8,7.7-8.7,11.9c-16.7,23.3-28.1,51.9-35.5,82.9C29,195.2,18,222.9,12.4,248.4
		C7.8,232,5.5,216,5.5,200.3z M155.2,475.2c-43.8-10.2-77.3-25.9-96.8-45.5c-44.6-44.6-48.1-88.4-48.1-145.4
		c0-6.9,0.6-14.2,1.7-21.7c5.4,15.6,12.5,31.2,21.1,46.9c2.3,40.5,11,76.1,38.6,102.4c19,18.1,42.5,31.8,68,41.2
		c8.5,9.1,16.8,17.2,24.9,24.3C161.6,476.6,158.4,475.9,155.2,475.2z M240.1,506.5c-20.6,0-40.6-7.8-62.3-24.4
		c31.1,5.5,61.7,7.7,85.3,7.7c12.7,0,24.6-0.6,36-2C278.3,499.2,258.3,506.5,240.1,506.5z M304.4,484.6c-12.8,1.9-26.5,2.8-41.3,2.8
		c-14.4,0-49.1-0.9-89.1-8.4c-1.1-0.9-2.3-1.8-3.4-2.8c-6.8-5.8-13.9-12.4-21.5-20.1c25.2,8.1,52.1,12.2,78.5,12.3
		c13.6,0.1,30.5,0.5,49,0.5c17.1,0,35.7-0.4,54.5-1.7C322.2,473.6,313.2,479.5,304.4,484.6z M316.8,482.4
		c7.7-4.9,15.4-10.2,23.2-15.8c9.2-0.8,18.3-1.8,27.4-3.2C351.5,472.3,335,478.5,316.8,482.4z M371.5,459.3
		c-8.7,1.4-17.5,2.5-26.2,3.4c30.2-22.3,61.2-49,91.3-72.3c6.4-4.9,12.3-10.5,17.8-16.5c-10.2,20.8-24.5,39.3-44.2,57.5
		c-11.7,10.8-23.2,19.8-35,27.2C374,458.9,372.8,459.1,371.5,459.3z M453.1,428.6c-17,13.2-41.2,22.9-72.1,28.9
		c10.2-6.8,20.4-14.9,30.8-24.5c20.2-18.6,36.6-39,48.1-65.5c13.3-16.3,24.1-35.7,32.2-56.9C493.1,350.2,492.9,397.8,453.1,428.6z
		 M451.8,124c-1.8-4.6-3.6-9.2-5.6-13.7c0.4-1.9,0.8-3.7,1.2-5.5c14.7,11.3,26.5,22.8,35.6,34.7c15.8,20.6,23.4,42.5,23.4,66.9
		c0,27.3-4,55.4-11.4,81.2C495,226.1,478.2,168.3,451.8,124z"/>
</g>
</svg>
