<?xml version="1.0" encoding="utf-8"?>
<!-- Generator: Adobe Illustrator 22.1.0, SVG Export Plug-In . SVG Version: 6.00 Build 0)  -->
<svg version="1.1" id="Livello_1" xmlns="http://www.w3.org/2000/svg" xmlns:xlink="http://www.w3.org/1999/xlink" x="0px" y="0px"
	 viewBox="0 0 508.5 509" style="enable-background:new 0 0 508.5 509;" xml:space="preserve">
<style type="text/css">
	.st0{fill:#221F20;}
</style>
<title>breathable</title>
<g>
	<path class="st0" d="M479,112c2.9-26.8,1-48.4-12.8-66.7C438,8,304.4,0,238.8,0c-36.5,0-71,10.7-101.9,27.6
		c-81.7,13-112.8,48.7-112,148.8C10,200,0,226.5,0,254.7c0,38,8,64.1,22.2,85.9c3.4,40.3,13.3,76.5,41.5,98.1
		c5.6,4.3,11.3,8.2,17.3,11.8c5.9,11.8,12.2,21.3,18.5,27.7c20.1,20.3,45.6,30.8,81.2,30.8c24.5,0,53.8-5,89.3-15.2
		c8.6-2.5,16.8-5.5,24.7-8.9c5.8-0.9,11.6-1.9,17.2-3.1c49.2-0.3,95.5-11.9,125.8-42.4c39.1-39.3,57.7-82.1,56.6-149.4
		c3.5-7.8,6.3-15.8,8.4-24.1C516.9,199.7,503.4,150.2,479,112z M238.8,2.3c71.3,0,199,9.3,225.5,44.4c12.8,17,15.1,37.3,12.7,62.1
		c-11.4-17.2-25-32-39.1-45.1c-39-36-93-45.2-157.2-45.2l0,0c-30.4,0-63.1,2-97.5,4.3c-14.4,0.9-27.6,2.2-39.8,3.9
		C170.4,12.6,202.6,2.3,238.8,2.3z M468.4,161.8c-10.8-23.8-22.6-39.6-30.5-50.3c-37.8-51.4-93.9-75.7-156-75.7l-0.1,0
		c-53.7,0-111.9,18.3-166.4,53.2c-27.3,17.4-62.3,45.9-86.6,81.5c6.3-34.5,18.8-66.2,43.5-91c13.9-14,35.1-32.5,62.1-47.9
		c14.2-2.4,30.4-4.1,48.8-5.3c32.6-2.1,66.2-4.3,97.3-4.3v0c75,0,121.3,13.2,154.9,44.2c16.6,15.4,30.2,31.3,40.8,47.9
		c-1.6,13.6-4.4,28.5-7.5,44.9C468.7,159.9,468.6,160.9,468.4,161.8z M459.5,214.6c-2.5,17.8-2.9,36.6-3.3,56.5
		c-0.6,25.8-1.1,51.9-6.2,77.1c-9.9,11.1-20.8,22.3-32.5,34c-3.6,3.6-7.3,7.3-10.9,11.1c-30.9,31.3-62.5,63.5-103.2,83.8
		c-16.1-0.3-32.1-1.7-48-4c-48.1-7-100.9-20.2-161-68.9l-3.4-2.7c-12.5-10.1-23.8-19.3-33.9-28.4c-14.4-53.1-24.8-116.4-27.8-169
		c-0.5-8.6-0.8-16.8-0.9-24.6c22.1-35.4,56.5-65.9,89.5-86.9c53.6-34.3,110.3-52.4,164-52.4l0-0.1c63.2,0,117.3,26.2,152.4,73.9
		l0.8,1c8.6,11.6,21.1,28.6,32,54.6C464.4,183.5,461.7,198.5,459.5,214.6z M468.6,173.7c9,22.6,16.7,51.6,19.9,89.3
		c0.8,10,1.3,19.4,1.4,28.5c-8.8,18.5-21.5,35.8-36.9,53.4c8.1-44.2,3.3-90.5,8.8-130C463.9,200.2,466.2,186.5,468.6,173.7z
		 M290,483.3c-13.4,1.8-27.5,2.7-42.3,2.7c-68.2,0-121.8-11.7-162.9-35.8c-9.2-18-17.8-42-25.5-69.1c9.8,8.6,20.6,17.2,32.3,26.7
		c56.7,45.9,108.5,61.9,163.2,69.8c13.1,1.9,26.4,3.2,39.6,3.8C292.9,482.1,291.5,482.7,290,483.3z M310.5,477.3
		c43.6-23.4,77.1-60.1,109.4-92.6c10.2-10.3,19.8-20.1,28.7-29.8c-5.8,24.8-16.5,48.5-36.3,69.8c-23.5,25.2-53.6,42.6-90.1,52.3
		C318.4,477.2,314.5,477.3,310.5,477.3z M22.9,271.3c0.1-6.5,0.1-13,0.1-19.4c0-18.9,0.5-38,2.4-56.6c0.1,3,0.3,6,0.4,9.1
		c2.8,50,12.5,111.4,26.4,164.3C41,358.1,31.5,347.4,24,335.2C22.6,314.6,22.8,292.8,22.9,271.3z M57.1,66.2
		c15.2-16.4,37.1-27.1,71.1-33.5C107,45.3,87.6,60.9,70.8,77.8c-22.8,22.9-35.5,51.9-42.3,83.9C29.6,115.7,38.7,86.2,57.1,66.2z
		 M4.5,254.7c0-23.7,7.6-46.8,19.8-68.2c-2.7,21.1-3.5,43.2-3.5,65.4c0,25.9-0.7,53.2,0.8,79.1C10.5,311.3,4.5,287.7,4.5,254.7z
		 M65.1,436.9c-26.8-20.5-36.7-54.3-40.3-92.6c8.1,11.6,18.1,22,29.6,32.4c7.3,26.8,15.8,51.1,24.8,70
		C74.3,443.7,69.6,440.4,65.1,436.9z M269.2,490.6c-35.3,10.1-64.2,15-88.4,15c-33.6,0-58.6-9.5-78.8-29.8
		c-5.2-5.2-10.3-12.7-15.3-22c47.2,26.6,104.9,34.5,161.1,34.5c11.5,0,22.7-0.6,33.7-1.7C277.5,488,273.4,489.4,269.2,490.6z
		 M434.6,436.2c-22.9,23.1-58,36.8-102.3,40.2c31.3-9.8,59.2-26,81.7-50.2c21.1-22.6,31.9-48.2,37.6-74.8
		c15.7-17.4,28.7-34.3,38.2-52.4C489.4,357.7,472.6,398,434.6,436.2z M494.2,281.7c-0.2-6.1-0.6-12.5-1.2-19
		c-3.5-41.9-12.6-73.3-22.9-97.1c3.3-17.8,6.4-33.8,8.3-48.3c26.4,43.2,33.1,91.3,21.2,147.7C498.1,270.7,496.3,276.3,494.2,281.7z"
		/>
	<path class="st0" d="M254.7,55.8c-109.9,0-199,89.1-199,199s89.1,199,199,199s199-89.1,199-199S364.6,55.8,254.7,55.8z M64.7,254.8
		c0-21.6,3.6-42.4,10.3-61.8l55.1,55.1l-31.9,37.6c-0.7,0.8-1.1,1.9-1.1,2.9c0,2.5,2,4.5,4.5,4.5c1.1,0,2.1-0.4,2.9-1.1l37.6-31.9
		l47.7,47.7l-31.9,37.6c-0.7,0.8-1.1,1.9-1.1,2.9c0,2.5,2,4.5,4.5,4.5c1.1,0,2.1-0.4,2.9-1.1l37.6-31.9l47.6,47.6l-31.9,37.6
		c-0.7,0.8-1.1,1.9-1.1,2.9c0,2.5,2,4.5,4.5,4.5c1.1,0,2.1-0.4,2.9-1.1l37.6-31.9l55.1,55.1c-19.4,6.7-40.2,10.3-61.8,10.3
		C150,444.8,64.7,359.5,64.7,254.8z M196.5,177.5l-5.2-5.2l26.7,0v26.7l-5.2-5.2c-1.7-1.7-4.3-1.8-6.1-0.2l-63.9,54.3l-0.3-0.3
		l54.3-63.9C198.2,181.8,198.1,179.1,196.5,177.5z M288.1,199.5l-9.7-9.7h41.4v41.4l-9.7-9.7c-1.7-1.7-4.3-1.8-6.1-0.2l-101.5,86.3
		l-0.2-0.2l86.2-101.5C289.8,203.8,289.7,201.2,288.1,199.5z M315.8,296.8l-5.2-5.2h26.6v26.6L332,313c-1.7-1.6-4.3-1.7-6.1-0.2
		L262,367.1l-0.3-0.3l54.3-63.9C317.6,301.1,317.5,298.5,315.8,296.8z M325.9,430.9l-57.5-57.5l60.1-51.1l10,10
		c0.8,0.8,2,1.3,3.2,1.3c2.5,0,4.5-2,4.5-4.5V287c0,0,0,0,0,0c0-2.5-2-4.5-4.5-4.5h-42.1c-1.2,0-2.3,0.5-3.2,1.3
		c-1.8,1.8-1.8,4.6,0,6.4l10,10l-51.1,60.2l-46.6-46.6l97.8-83.1l14.5,14.5c0.8,0.8,2,1.3,3.2,1.3c2.5,0,4.5-2,4.5-4.5v-56.7
		c0-2.5-2-4.5-4.5-4.5h-56.8c-1.2,0-2.3,0.5-3.2,1.3c-1.8,1.8-1.8,4.6,0,6.4l14.5,14.5l-83.1,97.8l-46.6-46.6l60.2-51.1l10,10
		c0.8,0.8,2,1.3,3.2,1.3c2.5,0,4.5-2,4.5-4.5v-42.1c0-2.5-2-4.5-4.5-4.5h-42.1c-1.2,0-2.3,0.5-3.2,1.3c-1.8,1.8-1.8,4.6,0,6.4l10,10
		L136,241.1l-57.5-57.5C106.8,114,175.1,64.8,254.7,64.8c104.8,0,190,85.2,190,190C444.7,334.4,395.5,402.7,325.9,430.9z"/>
	<circle class="st0" cx="222.9" cy="87.6" r="8"/>
	<circle class="st0" cx="278.7" cy="95.5" r="8"/>
	<circle class="st0" cx="175.2" cy="111.5" r="8"/>
	<circle class="st0" cx="151.3" cy="151.2" r="8"/>
	<circle class="st0" cx="302.5" cy="143.3" r="8"/>
	<circle class="st0" cx="350.3" cy="270.7" r="8"/>
	<path class="st0" d="M204.2,234.3c-4.8,0-8.8,3.9-8.8,8.8c0,4.8,3.9,8.8,8.8,8.8c4.8,0,8.8-3.9,8.8-8.8S209,234.3,204.2,234.3z"/>
	<circle class="st0" cx="453.8" cy="63.7" r="8"/>
	<path class="st0" d="M246.9,167.2c4.4,0,8-3.6,7.9-8s-3.6-8-8-7.9c-4.4,0-8,3.6-7.9,8C238.8,163.6,242.4,167.2,246.9,167.2
		C246.8,167.2,246.9,167.2,246.9,167.2z"/>
	<circle class="st0" cx="406" cy="262.7" r="8"/>
	<circle class="st0" cx="230.9" cy="119.4" r="8"/>
	<circle class="st0" cx="350.3" cy="183.1" r="8"/>
	<circle class="st0" cx="334.4" cy="119.4" r="8"/>
	<path class="st0" d="M281.4,273.5c-4.8,0-8.8,3.9-8.8,8.8c0,0,0,0,0,0c0,4.8,3.9,8.8,8.8,8.8c4.8,0,8.8-3.9,8.8-8.8
		S286.2,273.5,281.4,273.5z"/>
	<circle class="st0" cx="398.1" cy="96" r="8"/>
	<path class="st0" d="M376.3,137.2c-4.8,0-8.8,3.9-8.8,8.8c0,4.8,3.9,8.8,8.8,8.8c0,0,0,0,0,0c4.8,0,8.8-3.9,8.8-8.8
		S381.1,137.2,376.3,137.2z"/>
	<circle class="st0" cx="406" cy="199" r="8"/>
	<circle class="st0" cx="445.8" cy="103.5" r="8"/>
	<circle class="st0" cx="366.2" cy="230.9" r="8"/>
	<circle class="st0" cx="445.8" cy="159.2" r="8"/>
	<circle class="st0" cx="398.1" cy="318.4" r="8"/>
	<path class="st0" d="M251.9,197.4c-4.8,0-8.8,4-8.7,8.8c0,4.8,4,8.7,8.8,8.7c0,0,0,0,0,0c4.8,0,8.8-4,8.7-8.8
		C260.7,201.3,256.8,197.4,251.9,197.4z"/>
	<circle class="st0" cx="342.4" cy="63.7" r="8"/>
	<circle class="st0" cx="398.1" cy="55.7" r="8"/>
	
		<ellipse transform="matrix(0.9732 -0.2298 0.2298 0.9732 -44.1336 114.5139)" class="st0" cx="469.7" cy="246.8" rx="8.8" ry="8.8"/>
	<circle class="st0" cx="493.6" cy="111.5" r="8"/>
	<circle class="st0" cx="485.7" cy="167.2" r="8"/>
</g>
</svg>
